{
	"SI_general":{
		"ship":"ship",
		"fleet":"fleet",
		"fighterWing":"fighter wing"
	},

	"SI_mining":{
		"danger":"hazard rating",
		"exhaustion":"resource exhaustion",
		"miningAccident":"mining accident",
		"miningReport":"mining report",
		"miningStrength":"mining strength",
		"planetType":"type",
		"resourcesExtracted":"resources extracted",
		"theAsteroid":"the asteroid",
		"LPC":"$fighterName LPC",
		"machineryAvailable":"Machinery usable (available)",
		
		"miningToolsListHeader":"The following mining ships and weapons exist in the Sector:",
		"miningToolsListAddendum":"Fighter wings with the appropriate weapons count towards their parent ship's mining strength.",
		"insufficientMachineryWarning":"Your $shipOrFleet does not have enough heavy machinery to work at full capacity.",
		
		"cacheFound":"Hidden cache found!",
		"accidentsOccured":"Accidents occured!",
		"shipDamaged":"$ship took $damage damage",
		"shipDestroyed":"$ship destroyed",
		"shipLostCR":"$ship lost $crLost CR",
		"crewLost":"crew lost",
		"machineryLost":"heavy machinery lost"
	},
	
	"SI_depot":{
		"depotProperName":"Storage Depot",
		"resourcesAvailable":"Resources required (available)",
		"resourceConsumeNote":"All resources except crew will be permanently consumed.",
		"depotComplete":"Your new storage depot has been completed and is ready to stash great treasures.",
		"insufficientResources":"Your $shipOrFleet does not have enough resources to build a depot.",
		"insufficientResourcesMidway":"Some needed resources apparently disappeared during the construction process. The depot could not be completed.",
	},
	
	"SI_events":{
		"possible":"possible",
		"over":"over",
		
		"commodityBubble":"commodity bubble"
	}
}