{
  "id":"stellar_industrialist",
  "name":"Stellar Industrialist",
  "author":"Histidine",
  "version":"0.1",
  "utility":false,
  "description":"Adds economy functions.",
  "gameVersion":"0.8a",
  "modPlugin":"org.histidine.industry.campaign.plugins.SIModPlugin",
  "jars":["jars/SI.jar"],
}