event_type,event_stage,p,target_rel,channels,subject,summary,assessment,image,icon,tags,sound_id,implementation notes
si_commodity_bubble,possible,,,player_intel,Possible $commodity bubble $onOrAt $market,Analysis of trading activity on $market suggests that a $commodity bubble is likely to occur within a few weeks.,Increased food prices and reduced stability $onOrAt $market if the shortage occurs.,,graphics/icons/intel/commodities.png,,,
si_commodity_bubble,likely,,,player_intel,Likely $commodity bubble $onOrAt $market,Analysis of trading activity on $market suggests that a $commodity bubble is almost certain to occur within a few weeks.,Increased food prices and reduced stability $onOrAt $market if the shortage occurs.,,graphics/icons/intel/commodities.png,,,
si_commodity_bubble,start,,,news,$Commodity bubble $onOrAt $market,Purchases of $commodity and related financial derivatives on $market are reported to be escalating. Prices will likely be elevated.,"$Commodity demand $onOrAt $market is expected to be elevated, and prices will grow unless demand can be met.",,graphics/icons/intel/commodities.png,prices,,
si_commodity_bubble,stage2,,,news,$Commodity bubble $onOrAt $market intensifies,Purchases of $commodity on $market are well in excess of normal demand. Economists believe a commodity bubble is taking place.,"$Commodity demand $onOrAt $market is elevated, and prices will grow unless demand can be met.",,graphics/icons/intel/commodities.png,prices,,
si_commodity_bubble,stage3,,,news,Elevated $commodity bubble $onOrAt $market,The $commodity bubble on $market continues unabated. Warehouses are piled up with heaps of $commodity owned by speculators.,"$Commodity demand $onOrAt $market is elevated, and prices will grow unless demand can be met.",,graphics/icons/intel/commodities.png,prices,,
si_commodity_bubble,stage4,,,news,Extreme $commodity bubble $onOrAt $market,The $commodity bubble on $market has reached incredible levels. Analysts at Tulip Securities warn of a market implosion in the near future.,"$Commodity demand $onOrAt $market is expected to reach a peak, before the bubble finally collapses.",,graphics/icons/intel/commodities.png,prices,,
si_commodity_bubble,end,,,news,$Commodity bubble $onOrAt $market over,The report indicates that the $commodity bubble $onOrAt $market is now over. Investors who failed to get out in time have incurred great losses.,$Commodity demand $onOrAt $market returns to normal levels. Prices are expected to be depressed until the stockpiles are drawn down.,,graphics/icons/intel/commodities.png,prices,,
