id,trigger,conditions,script,text,options,notes
si_openAsteroid,OpenInteractionDialog,$isAsteroid,"$menuState = main 0
ShowDefaultVisual
PrintDescription 3
FireAll PopulateOptions",Your $shipOrFleet approaches the asteroid.,,
si_leaveAsteroid,PopulateOptions,$isAsteroid,SetShortcut marketLeave ESCAPE,,100:marketLeave:Leave,
,,,,,,
# START mining,,,,,,
si_miningOption,PopulateOptions,"$si_canMine
!$isAsteroid",SetEnabled si_miningPreview true,,3:si_miningPreview:Mine planet,
si_miningOptionAsteroid,PopulateOptions,"$si_canMine
$isAsteroid",SetEnabled si_miningPreview true,,3:si_miningPreview:Mine asteroid,
si_miningOptionUnsurveyed,PopulateOptions,"$si_canMine
!$isAsteroid
$market.surveyLevel != FULL","SetTooltip si_miningPreview ""You need to survey the planet first!""
SetEnabled si_miningPreview false",,,
,,,,,,
si_miningPreview,DialogOptionSelected,$option == si_miningPreview,"$menuState = si_mining 0
SI_PrintMiningInfo planet
FireAll SI_MiningOption",,,
si_miningMineOption,SI_MiningOption,$player.miningStrength > 0,"SetEnabled si_miningStart true
SetShortcut si_miningStart RETURN
SetShortcut si_miningBack ESCAPE",,"si_miningStart:Start mining
si_miningFleetInfo:List mining ships
si_miningListTools:What ships and weapons can mine?
si_miningBack:Back",
si_miningMineOptionNoMiners,SI_MiningOption,$player.miningStrength <= 0,"SetTooltip si_miningStart ""You have no ships capable of mining.""
SetEnabled si_miningStart false
SetShortcut si_miningBack ESCAPE",,"si_miningStart:Start mining
si_miningListTools:What ships and weapons can mine?
si_miningBack:Back",
si_miningFleetInfo,DialogOptionSelected,$option == si_miningFleetInfo,"SI_PrintMiningInfo fleet
FireAll si_miningOption",,,
si_miningListTools,DialogOptionSelected,$option == si_miningListTools,"SI_PrintMiningInfo tools
FireAll si_miningOption",,,
si_miningStart,DialogOptionSelected,"$si_canMine
$option == si_miningStart","Wait $global.miningWait 1.0 $global.miningFinished $global.miningInterrupted $global.miningInProgress ""Mining...""
MakePlayerImmediatelyAttackable",,,
si_miningInterrupted,BeginFleetEncounter,$global.miningInProgress,AbortWait $global.miningWait,Contact with the other fleet suspends mining operations.,,
si_miningComplete,OpenInteractionDialog,"$si_canMine
$global.miningFinished score:3","SI_GetMiningResults 1
ShowDefaultVisual",Your $shipOrFleet has completed mining on $entityName.,"si_miningPreview:Mine again
si_miningBack:Back",
,,,,,,
si_miningBack,DialogOptionSelected,$option == si_miningBack,"$menuState = main 0
FireAll PopulateOptions",,,
# END mining,,,,,,
,,,,,,
# START depot,,,,,,
si_depotOption,PopulateOptions,$si_canMine,,,4:si_depotPreview:Construct a depot,
si_depotPreview,DialogOptionSelected,$option == si_depotPreview,"SI_BuildDepot buildInfo
FireAll SI_DepotOption
$menuState = si_depot 0",You can build a depot station here as a more permanent way to store supplies and goods.,,
si_depotBuildOption,SI_DepotOption,,"SetEnabled si_depotBuildStart true
SetShortcut si_depotBuildStart RETURN
SetShortcut si_depotBack ESCAPE",,"si_depotBuildStart:Proceed with construction
si_depotBack:Go back",
si_depotBuildOptionInsufficientResources,SI_DepotOption,!$si_canBuildDepot,"SetEnabled si_depotBuildStart false
SetTooltip  si_depotBuildStar ""You have insufficient resources to build a depot.""",,,
si_depotBuildStart,DialogOptionSelected,"$si_canBuildDepot
$option == si_depotBuildStart","Wait $global.depotBuildWait 2.0 $global.depotFinished $global.depotBuildInterrupted $global.buildingDepot ""Constructing...""
MakePlayerImmediatelyAttackable",,,
si_depotBuildInterrupted,BeginFleetEncounter,$global.global.buildingDepot,AbortWait $global.depotBuildWait,Contact with the other fleet suspends depot construction.,,
si_depotCompleted,OpenInteractionDialog,$global.depotFinished score:3,"ShowDefaultVisual
SI_BuildDepot build",,marketLeave:Leave,
,,,,,,
si_depotBack,DialogOptionSelected,$option == si_depotBack,"$menuState = main 0
FireAll PopulateOptions",,,
,,,,,,
si_flavorTextMarketDepot,TradePanelFlavorText,"$global.tradePanelMode == MARKET
$tag:si_depot score:10","AddText ""The station is dark and quiet, lights dimmed to minimize power demand. Cavernous warehouse chambers sit beyond great airlocks, awaiting the spoils of a successful salvaging expedition or emergency stocks of supplies and fuel. When your crew stops working, the subtle hum of the standard-spec fusion reactor at the depot's heart can be felt in the deck plates."" marketFlavorTextColor",,,
#END DEPOT,,,,,,
